%YAML 1.1
%TAG !u! tag:unity3d.com,2011:
--- !u!74 &7400000
AnimationClip:
  m_ObjectHideFlags: 0
  m_PrefabParentObject: {fileID: 0}
  m_PrefabInternal: {fileID: 0}
  m_Name: BMGSprite@jump
  serializedVersion: 6
  m_Legacy: 0
  m_Compressed: 0
  m_UseHighQualityCurve: 1
  m_RotationCurves: []
  m_CompressedRotationCurves: []
  m_EulerCurves: []
  m_PositionCurves: []
  m_ScaleCurves: []
  m_FloatCurves: []
  m_PPtrCurves:
  - curve:
    - time: 0
      value: {fileID: 21300000, guid: 21c6e184f7c17004d859aa67865a2d50, type: 3}
    - time: 0.15
      value: {fileID: 21300000, guid: 78333091f874d7c448d36a1128e58f06, type: 3}
    - time: 0.3
      value: {fileID: 21300000, guid: 669bd8c0b23c892438264f9178cfe14b, type: 3}
    - time: 0.45
      value: {fileID: 21300000, guid: e4639541073f5c1448f4ab09752c3602, type: 3}
    - time: 0.6
      value: {fileID: 21300000, guid: 34088f14df2fd2f43ab946f44f58b660, type: 3}
    - time: 0.75
      value: {fileID: 21300000, guid: 5338bf81310f9fe4d8873c85f87a1a86, type: 3}
    attribute: m_Sprite
    path: 
    classID: 212
    script: {fileID: 0}
  m_SampleRate: 20
  m_WrapMode: 0
  m_Bounds:
    m_Center: {x: 0, y: 0, z: 0}
    m_Extent: {x: 0, y: 0, z: 0}
  m_ClipBindingConstant:
    genericBindings:
    - serializedVersion: 2
      path: 0
      attribute: 0
      script: {fileID: 0}
      typeID: 212
      customType: 23
      isPPtrCurve: 1
    pptrCurveMapping:
    - {fileID: 21300000, guid: 21c6e184f7c17004d859aa67865a2d50, type: 3}
    - {fileID: 21300000, guid: 78333091f874d7c448d36a1128e58f06, type: 3}
    - {fileID: 21300000, guid: 669bd8c0b23c892438264f9178cfe14b, type: 3}
    - {fileID: 21300000, guid: e4639541073f5c1448f4ab09752c3602, type: 3}
    - {fileID: 21300000, guid: 34088f14df2fd2f43ab946f44f58b660, type: 3}
    - {fileID: 21300000, guid: 5338bf81310f9fe4d8873c85f87a1a86, type: 3}
  m_AnimationClipSettings:
    serializedVersion: 2
    m_AdditiveReferencePoseClip: {fileID: 0}
    m_AdditiveReferencePoseTime: 0
    m_StartTime: 0
    m_StopTime: 0.8
    m_OrientationOffsetY: 0
    m_Level: 0
    m_CycleOffset: 0
    m_HasAdditiveReferencePose: 0
    m_LoopTime: 1
    m_LoopBlend: 0
    m_LoopBlendOrientation: 0
    m_LoopBlendPositionY: 0
    m_LoopBlendPositionXZ: 0
    m_KeepOriginalOrientation: 0
    m_KeepOriginalPositionY: 1
    m_KeepOriginalPositionXZ: 0
    m_HeightFromFeet: 0
    m_Mirror: 0
  m_EditorCurves: []
  m_EulerEditorCurves: []
  m_HasGenericRootTransform: 0
  m_HasMotionFloatCurves: 0
  m_GenerateMotionCurves: 0
  m_Events: []
