%YAML 1.1
%TAG !u! tag:unity3d.com,2011:
--- !u!74 &7400000
AnimationClip:
  m_ObjectHideFlags: 0
  m_PrefabParentObject: {fileID: 0}
  m_PrefabInternal: {fileID: 0}
  m_Name: walk
  serializedVersion: 6
  m_Legacy: 0
  m_Compressed: 0
  m_UseHighQualityCurve: 1
  m_RotationCurves: []
  m_CompressedRotationCurves: []
  m_EulerCurves: []
  m_PositionCurves: []
  m_ScaleCurves: []
  m_FloatCurves: []
  m_PPtrCurves:
  - curve:
    - time: 0.06666667
      value: {fileID: 21300000, guid: 3f681d415fb3a4b4b8f9f43a616af12e, type: 3}
    - time: 0.26666668
      value: {fileID: 21300000, guid: 6175e64d9d17bd54dafdde7f83a42839, type: 3}
    - time: 0.46666667
      value: {fileID: 21300000, guid: eda723860c3d14143a4fa0415f67b3f4, type: 3}
    - time: 0.6666667
      value: {fileID: 21300000, guid: 23276d7ff97ab6a4bbd519818018cc8e, type: 3}
    - time: 0.8666667
      value: {fileID: 21300000, guid: da672646e4bd70b499544a011ad8ccf1, type: 3}
    - time: 1.0666667
      value: {fileID: 21300000, guid: 23276d7ff97ab6a4bbd519818018cc8e, type: 3}
    - time: 1.2666667
      value: {fileID: 21300000, guid: f758166a4ca5d1a4b97712429c22ff69, type: 3}
    attribute: m_Sprite
    path: 
    classID: 212
    script: {fileID: 0}
  m_SampleRate: 15
  m_WrapMode: 0
  m_Bounds:
    m_Center: {x: 0, y: 0, z: 0}
    m_Extent: {x: 0, y: 0, z: 0}
  m_ClipBindingConstant:
    genericBindings:
    - serializedVersion: 2
      path: 0
      attribute: 0
      script: {fileID: 0}
      typeID: 212
      customType: 23
      isPPtrCurve: 1
    pptrCurveMapping:
    - {fileID: 21300000, guid: 3f681d415fb3a4b4b8f9f43a616af12e, type: 3}
    - {fileID: 21300000, guid: 6175e64d9d17bd54dafdde7f83a42839, type: 3}
    - {fileID: 21300000, guid: eda723860c3d14143a4fa0415f67b3f4, type: 3}
    - {fileID: 21300000, guid: 23276d7ff97ab6a4bbd519818018cc8e, type: 3}
    - {fileID: 21300000, guid: da672646e4bd70b499544a011ad8ccf1, type: 3}
    - {fileID: 21300000, guid: 23276d7ff97ab6a4bbd519818018cc8e, type: 3}
    - {fileID: 21300000, guid: f758166a4ca5d1a4b97712429c22ff69, type: 3}
  m_AnimationClipSettings:
    serializedVersion: 2
    m_AdditiveReferencePoseClip: {fileID: 0}
    m_AdditiveReferencePoseTime: 0
    m_StartTime: 0
    m_StopTime: 1.3333334
    m_OrientationOffsetY: 0
    m_Level: 0
    m_CycleOffset: 0
    m_HasAdditiveReferencePose: 0
    m_LoopTime: 1
    m_LoopBlend: 0
    m_LoopBlendOrientation: 0
    m_LoopBlendPositionY: 0
    m_LoopBlendPositionXZ: 0
    m_KeepOriginalOrientation: 0
    m_KeepOriginalPositionY: 1
    m_KeepOriginalPositionXZ: 0
    m_HeightFromFeet: 0
    m_Mirror: 0
  m_EditorCurves: []
  m_EulerEditorCurves: []
  m_HasGenericRootTransform: 0
  m_HasMotionFloatCurves: 0
  m_GenerateMotionCurves: 0
  m_Events: []
